{
    "Username": "singhalok4it",
    "Email":"singhalok4it@gmail.com",
    "Password": "Rensoft@1234",
    "ArticleTitle" : "Fixtures in Cypress",
    "ArticleAbout" : "While designing a Test Automation Framework,one of the primary requirements is to segregate the test scripts from the test data",
    "ArticleDescription" : "Additionally, if the same framework can provide the functionality to mock the backend/third-party requests and offer the capability to test the frontend independently",
    "ArticleTag" : "Fixtures in Cypress",
    "ProfilePictureUrl" : "https://www.facebook.com/photo?fbid=1615157681879446&set=a.105855266143036",
    "BoiInformation" : "When no extension is passed to cy.fixture(), Cypress will search for files with the specified name within the fixturesFolder (which defaults to cypress/fixtures) and resolve the first one.",
    "NewPassword" : "Rensoft@1234"
}